<?xml version="1.0" encoding="UTF-8" standalone="no"?>
<svg
   xmlns:dc="http://purl.org/dc/elements/1.1/"
   xmlns:cc="http://creativecommons.org/ns#"
   xmlns:rdf="http://www.w3.org/1999/02/22-rdf-syntax-ns#"
   xmlns:svg="http://www.w3.org/2000/svg"
   xmlns="http://www.w3.org/2000/svg"
   xmlns:sodipodi="http://sodipodi.sourceforge.net/DTD/sodipodi-0.dtd"
   xmlns:inkscape="http://www.inkscape.org/namespaces/inkscape"
   width="1000"
   height="1000"
   viewBox="0 0 264.58 264.58"
   version="1.1"
   id="svg8"
   inkscape:version="1.0.1 (0767f8302a, 2020-10-17)"
   sodipodi:docname="the-meme.svg">
  <defs
     id="defs2" />
  <sodipodi:namedview
     id="base"
     pagecolor="#ffffff"
     bordercolor="#666666"
     borderopacity="1.0"
     inkscape:pageopacity="1"
     inkscape:pageshadow="2"
     inkscape:zoom="0.98994949"
     inkscape:cx="282.14607"
     inkscape:cy="485.5963"
     inkscape:document-units="px"
     inkscape:current-layer="layer1"
     inkscape:document-rotation="0"
     showgrid="false"
     units="px"
     inkscape:pagecheckerboard="true"
     inkscape:window-width="1485"
     inkscape:window-height="1025"
     inkscape:window-x="2072"
     inkscape:window-y="214"
     inkscape:window-maximized="0" />
  <metadata
     id="metadata5">
    <rdf:RDF>
      <cc:Work
         rdf:about="">
        <dc:format>image/svg+xml</dc:format>
        <dc:type
           rdf:resource="http://purl.org/dc/dcmitype/StillImage" />
        <dc:title></dc:title>
      </cc:Work>
    </rdf:RDF>
  </metadata>
  <g
     inkscape:label="Layer 1"
     inkscape:groupmode="layer"
     id="layer1">
    <text
       xml:space="preserve"
       style="font-style:normal;font-weight:normal;font-size:10.5832px;line-height:1.25;font-family:sans-serif;fill:#000000;fill-opacity:1;stroke:none;stroke-width:0.26458"
       x="8.6728468"
       y="16.93676"
       id="text12"><tspan
         sodipodi:role="line"
         id="tspan10"
         x="8.6728468"
         y="16.93676"
         style="stroke-width:0.26458">Me: Mom, can we have recursion meme?</tspan></text>
    <text
       xml:space="preserve"
       style="font-style:normal;font-weight:normal;font-size:10.5832px;line-height:1.25;font-family:sans-serif;fill:#000000;fill-opacity:1;stroke:none;stroke-width:0.26458"
       x="8.5602179"
       y="30.823656"
       id="text12-3"><tspan
         sodipodi:role="line"
         id="tspan10-6"
         x="8.5602179"
         y="30.823656"
         style="stroke-width:0.26458">Mom: We have recursion meme at home.</tspan></text>
    <text
       xml:space="preserve"
       style="font-style:normal;font-weight:normal;font-size:10.5832px;line-height:1.25;font-family:sans-serif;fill:#000000;fill-opacity:1;stroke:none;stroke-width:0.26458"
       x="9.0558596"
       y="44.730591"
       id="text34"><tspan
         sodipodi:role="line"
         id="tspan32"
         x="9.0558596"
         y="44.730591"
         style="stroke-width:0.26458">The recursion meme:</tspan></text>
    <image
       style="fill:#ffffff;stroke-width:0.2445"
       id="rect36"
       width="206.36166"
       height="206.36166"
       x="10.612084"
       y="48.277168"
       href="the-meme.svg" />
    <!-- <rect
       style="fill:#ffffff;stroke-width:0.2445"
       id="rect36"
       width="206.36166"
       height="206.36166"
       x="10.612084"
       y="48.277168" /> -->
  </g>
</svg>
